0 info it worked if it ends with ok
1 verbose cli [ '/usr/local/bin/node',
1 verbose cli   '/usr/local/bin/npm',
1 verbose cli   'view',
1 verbose cli   '@ionic/cli-plugin-gulp',
1 verbose cli   'dist-tags.latest',
1 verbose cli   '--json' ]
2 info using npm@3.10.8
3 info using node@v6.9.1
4 silly mapToRegistry name @ionic/cli-plugin-gulp
5 silly mapToRegistry scope (from package name) @ionic
6 verbose mapToRegistry no registry URL found in name for scope @ionic
7 silly mapToRegistry using default registry
8 silly mapToRegistry registry https://registry.npmjs.org/
9 silly mapToRegistry data Result {
9 silly mapToRegistry   raw: '@ionic/cli-plugin-gulp',
9 silly mapToRegistry   scope: '@ionic',
9 silly mapToRegistry   escapedName: '@ionic%2fcli-plugin-gulp',
9 silly mapToRegistry   name: '@ionic/cli-plugin-gulp',
9 silly mapToRegistry   rawSpec: '',
9 silly mapToRegistry   spec: 'latest',
9 silly mapToRegistry   type: 'tag' }
10 silly mapToRegistry uri https://registry.npmjs.org/@ionic%2fcli-plugin-gulp
11 verbose request uri https://registry.npmjs.org/@ionic%2fcli-plugin-gulp
12 verbose request no auth needed
13 info attempt registry request try #1 at 6:57:21 PM
14 verbose request id e60125ebbf90c473
15 verbose etag W/"596fbb67-273ea"
16 verbose lastModified Wed, 19 Jul 2017 20:04:55 GMT
17 http request GET https://registry.npmjs.org/@ionic%2fcli-plugin-gulp
18 http 304 https://registry.npmjs.org/@ionic%2fcli-plugin-gulp
19 verbose headers { date: 'Thu, 20 Jul 2017 13:57:24 GMT',
19 verbose headers   via: '1.1 varnish',
19 verbose headers   'cache-control': 'max-age=0',
19 verbose headers   etag: 'W/"596fbb67-273ea"',
19 verbose headers   age: '0',
19 verbose headers   connection: 'keep-alive',
19 verbose headers   'x-served-by': 'cache-cdg8726-CDG',
19 verbose headers   'x-cache': 'MISS',
19 verbose headers   'x-cache-hits': '0',
19 verbose headers   'x-timer': 'S1500559044.200353,VS0,VE593',
19 verbose headers   vary: 'Accept-Encoding' }
20 silly get cb [ 304,
20 silly get   { date: 'Thu, 20 Jul 2017 13:57:24 GMT',
20 silly get     via: '1.1 varnish',
20 silly get     'cache-control': 'max-age=0',
20 silly get     etag: 'W/"596fbb67-273ea"',
20 silly get     age: '0',
20 silly get     connection: 'keep-alive',
20 silly get     'x-served-by': 'cache-cdg8726-CDG',
20 silly get     'x-cache': 'MISS',
20 silly get     'x-cache-hits': '0',
20 silly get     'x-timer': 'S1500559044.200353,VS0,VE593',
20 silly get     vary: 'Accept-Encoding' } ]
21 verbose etag https://registry.npmjs.org/@ionic%2fcli-plugin-gulp from cache
22 verbose get saving @ionic/cli-plugin-gulp to /Users/mac/.npm/registry.npmjs.org/_40ionic_252fcli-plugin-gulp/.cache.json
23 verbose correctMkdir /Users/mac/.npm correctMkdir not in flight; initializing
24 verbose exit [ 0, true ]
25 verbose stack Error: write EPIPE
25 verbose stack     at exports._errnoException (util.js:1026:11)
25 verbose stack     at WriteWrap.afterWrite (net.js:799:14)
26 verbose cwd /Users/mac/development/mwaeedapp
27 error Darwin 16.1.0
28 error argv "/usr/local/bin/node" "/usr/local/bin/npm" "view" "@ionic/cli-plugin-gulp" "dist-tags.latest" "--json"
29 error node v6.9.1
30 error npm  v3.10.8
31 error code EPIPE
32 error errno EPIPE
33 error syscall write
34 error write EPIPE
35 error If you need help, you may report this error at:
35 error     <https://github.com/npm/npm/issues>
36 verbose exit [ 1, true ]
